%!PS-Adobe-3.0 EPSF-3.0
%%Creator: MATLAB, The MathWorks, Inc. Version 7.12.0.635 (R2011a). Operating System: Linux 3.0.0-16-generic #29-Ubuntu SMP Tue Feb 14 12:48:51 UTC 2012 x86_64.
%%Title: /home/luy4/Desktop/lemke_normal.eps
%%CreationDate: 05/07/2012  18:16:03
%%DocumentNeededFonts: Helvetica
%%DocumentProcessColors: Cyan Magenta Yellow Black
%%LanguageLevel: 2
%%Pages: 1
%%BoundingBox:    81   227   529   564
%%EndComments

%%BeginProlog
% MathWorks dictionary
/MathWorks 160 dict begin
% definition operators
/bdef {bind def} bind def
/ldef {load def} bind def
/xdef {exch def} bdef
/xstore {exch store} bdef
% operator abbreviations
/c  /clip ldef
/cc /concat ldef
/cp /closepath ldef
/gr /grestore ldef
/gs /gsave ldef
/mt /moveto ldef
/np /newpath ldef
/cm /currentmatrix ldef
/sm /setmatrix ldef
/rm /rmoveto ldef
/rl /rlineto ldef
/s {show newpath} bdef
/sc {setcmykcolor} bdef
/sr /setrgbcolor ldef
/sg /setgray ldef
/w /setlinewidth ldef
/j /setlinejoin ldef
/cap /setlinecap ldef
/rc {rectclip} bdef
/rf {rectfill} bdef
% page state control
/pgsv () def
/bpage {/pgsv save def} bdef
/epage {pgsv restore} bdef
/bplot /gsave ldef
/eplot {stroke grestore} bdef
% orientation switch
/portraitMode 0 def /landscapeMode 1 def /rotateMode 2 def
% coordinate system mappings
/dpi2point 0 def
% font control
/FontSize 0 def
/FMS {/FontSize xstore findfont [FontSize 0 0 FontSize neg 0 0]
  makefont setfont} bdef
/reencode {exch dup where {pop load} {pop StandardEncoding} ifelse
  exch dup 3 1 roll findfont dup length dict begin
  { 1 index /FID ne {def}{pop pop} ifelse } forall
  /Encoding exch def currentdict end definefont pop} bdef
/isroman {findfont /CharStrings get /Agrave known} bdef
/FMSR {3 1 roll 1 index dup isroman {reencode} {pop pop} ifelse
  exch FMS} bdef
/csm {1 dpi2point div -1 dpi2point div scale neg translate
 dup landscapeMode eq {pop -90 rotate}
  {rotateMode eq {90 rotate} if} ifelse} bdef
% line types: solid, dotted, dashed, dotdash
/SO { [] 0 setdash } bdef
/DO { [.5 dpi2point mul 4 dpi2point mul] 0 setdash } bdef
/DA { [6 dpi2point mul] 0 setdash } bdef
/DD { [.5 dpi2point mul 4 dpi2point mul 6 dpi2point mul 4
  dpi2point mul] 0 setdash } bdef
% macros for lines and objects
/L {lineto stroke} bdef
/MP {3 1 roll moveto 1 sub {rlineto} repeat} bdef
/AP {{rlineto} repeat} bdef
/PDlw -1 def
/W {/PDlw currentlinewidth def setlinewidth} def
/PP {closepath eofill} bdef
/DP {closepath stroke} bdef
/MR {4 -2 roll moveto dup  0 exch rlineto exch 0 rlineto
  neg 0 exch rlineto closepath} bdef
/FR {MR stroke} bdef
/PR {MR fill} bdef
/L1i {{currentfile picstr readhexstring pop} image} bdef
/tMatrix matrix def
/MakeOval {newpath tMatrix currentmatrix pop translate scale
0 0 1 0 360 arc tMatrix setmatrix} bdef
/FO {MakeOval stroke} bdef
/PO {MakeOval fill} bdef
/PD {currentlinewidth 2 div 0 360 arc fill
   PDlw -1 eq not {PDlw w /PDlw -1 def} if} def
/FA {newpath tMatrix currentmatrix pop translate scale
  0 0 1 5 -2 roll arc tMatrix setmatrix stroke} bdef
/PA {newpath tMatrix currentmatrix pop	translate 0 0 moveto scale
  0 0 1 5 -2 roll arc closepath tMatrix setmatrix fill} bdef
/FAn {newpath tMatrix currentmatrix pop translate scale
  0 0 1 5 -2 roll arcn tMatrix setmatrix stroke} bdef
/PAn {newpath tMatrix currentmatrix pop translate 0 0 moveto scale
  0 0 1 5 -2 roll arcn closepath tMatrix setmatrix fill} bdef
/vradius 0 def /hradius 0 def /lry 0 def
/lrx 0 def /uly 0 def /ulx 0 def /rad 0 def
/MRR {/vradius xdef /hradius xdef /lry xdef /lrx xdef /uly xdef
  /ulx xdef newpath tMatrix currentmatrix pop ulx hradius add uly
  vradius add translate hradius vradius scale 0 0 1 180 270 arc 
  tMatrix setmatrix lrx hradius sub uly vradius add translate
  hradius vradius scale 0 0 1 270 360 arc tMatrix setmatrix
  lrx hradius sub lry vradius sub translate hradius vradius scale
  0 0 1 0 90 arc tMatrix setmatrix ulx hradius add lry vradius sub
  translate hradius vradius scale 0 0 1 90 180 arc tMatrix setmatrix
  closepath} bdef
/FRR {MRR stroke } bdef
/PRR {MRR fill } bdef
/MlrRR {/lry xdef /lrx xdef /uly xdef /ulx xdef /rad lry uly sub 2 div def
  newpath tMatrix currentmatrix pop ulx rad add uly rad add translate
  rad rad scale 0 0 1 90 270 arc tMatrix setmatrix lrx rad sub lry rad
  sub translate rad rad scale 0 0 1 270 90 arc tMatrix setmatrix
  closepath} bdef
/FlrRR {MlrRR stroke } bdef
/PlrRR {MlrRR fill } bdef
/MtbRR {/lry xdef /lrx xdef /uly xdef /ulx xdef /rad lrx ulx sub 2 div def
  newpath tMatrix currentmatrix pop ulx rad add uly rad add translate
  rad rad scale 0 0 1 180 360 arc tMatrix setmatrix lrx rad sub lry rad
  sub translate rad rad scale 0 0 1 0 180 arc tMatrix setmatrix
  closepath} bdef
/FtbRR {MtbRR stroke } bdef
/PtbRR {MtbRR fill } bdef
/stri 6 array def /dtri 6 array def
/smat 6 array def /dmat 6 array def
/tmat1 6 array def /tmat2 6 array def /dif 3 array def
/asub {/ind2 exch def /ind1 exch def dup dup
  ind1 get exch ind2 get sub exch } bdef
/tri_to_matrix {
  2 0 asub 3 1 asub 4 0 asub 5 1 asub
  dup 0 get exch 1 get 7 -1 roll astore } bdef
/compute_transform {
  dmat dtri tri_to_matrix tmat1 invertmatrix 
  smat stri tri_to_matrix tmat2 concatmatrix } bdef
/ds {stri astore pop} bdef
/dt {dtri astore pop} bdef
/db {2 copy /cols xdef /rows xdef mul dup 3 mul string
  currentfile 
  3 index 0 eq {/ASCIIHexDecode filter}
  {/ASCII85Decode filter 3 index 2 eq {/RunLengthDecode filter} if }
  ifelse exch readstring pop
  dup 0 3 index getinterval /rbmap xdef
  dup 2 index dup getinterval /gbmap xdef
  1 index dup 2 mul exch getinterval /bbmap xdef pop pop}bdef
/it {gs np dtri aload pop moveto lineto lineto cp c
  cols rows 8 compute_transform 
  rbmap gbmap bbmap true 3 colorimage gr}bdef
/il {newpath moveto lineto stroke}bdef
currentdict end def
%%EndProlog

%%BeginSetup
MathWorks begin

0 cap

end
%%EndSetup

%%Page: 1 1
%%BeginPageSetup
%%PageBoundingBox:    81   227   529   564
MathWorks begin
bpage
%%EndPageSetup

%%BeginObject: obj1
bplot

/dpi2point 12 def
portraitMode 0972 6768 csm

    0     0  5376  4033 rc
85 dict begin %Colortable dictionary
/c0 { 0.000000 0.000000 0.000000 sr} bdef
/c1 { 1.000000 1.000000 1.000000 sr} bdef
/c2 { 0.900000 0.000000 0.000000 sr} bdef
/c3 { 0.000000 0.820000 0.000000 sr} bdef
/c4 { 0.000000 0.000000 0.800000 sr} bdef
/c5 { 0.910000 0.820000 0.320000 sr} bdef
/c6 { 1.000000 0.260000 0.820000 sr} bdef
/c7 { 0.000000 0.820000 0.820000 sr} bdef
c0
1 j
1 sg
   0    0 5377 4034 rf
6 w
0 3288 4166 0 0 -3288 699 3589 4 MP
PP
-4166 0 0 3288 4166 0 0 -3288 699 3589 5 MP stroke
4 w
DO
SO
6 w
0 sg
 699 3589 mt 4865 3589 L
 699  301 mt 4865  301 L
 699 3589 mt  699  301 L
4865 3589 mt 4865  301 L
 699 3589 mt 4865 3589 L
 699 3589 mt  699  301 L
 699 3589 mt  699 3547 L
 699  302 mt  699  343 L
%%IncludeResource: font Helvetica
/Helvetica /ISOLatin1Encoding 120 FMSR

 666 3734 mt 
(0) s
1115 3589 mt 1115 3547 L
1115  302 mt 1115  343 L
1049 3734 mt 
(10) s
1532 3589 mt 1532 3547 L
1532  302 mt 1532  343 L
1466 3734 mt 
(20) s
1948 3589 mt 1948 3547 L
1948  302 mt 1948  343 L
1882 3734 mt 
(30) s
2365 3589 mt 2365 3547 L
2365  302 mt 2365  343 L
2299 3734 mt 
(40) s
2782 3589 mt 2782 3547 L
2782  302 mt 2782  343 L
2716 3734 mt 
(50) s
3198 3589 mt 3198 3547 L
3198  302 mt 3198  343 L
3132 3734 mt 
(60) s
3615 3589 mt 3615 3547 L
3615  302 mt 3615  343 L
3549 3734 mt 
(70) s
4031 3589 mt 4031 3547 L
4031  302 mt 4031  343 L
3965 3734 mt 
(80) s
4448 3589 mt 4448 3547 L
4448  302 mt 4448  343 L
4382 3734 mt 
(90) s
4865 3589 mt 4865 3547 L
4865  302 mt 4865  343 L
4765 3734 mt 
(100) s
 699 3589 mt  740 3589 L
4865 3589 mt 4823 3589 L
 598 3633 mt 
(0) s
 699 3178 mt  740 3178 L
4865 3178 mt 4823 3178 L
 531 3222 mt 
(10) s
 699 2767 mt  740 2767 L
4865 2767 mt 4823 2767 L
 531 2811 mt 
(20) s
 699 2356 mt  740 2356 L
4865 2356 mt 4823 2356 L
 531 2400 mt 
(30) s
 699 1945 mt  740 1945 L
4865 1945 mt 4823 1945 L
 531 1989 mt 
(40) s
 699 1534 mt  740 1534 L
4865 1534 mt 4823 1534 L
 531 1578 mt 
(50) s
 699 1123 mt  740 1123 L
4865 1123 mt 4823 1123 L
 531 1167 mt 
(60) s
 699  712 mt  740  712 L
4865  712 mt 4823  712 L
 531  756 mt 
(70) s
 699  302 mt  740  302 L
4865  302 mt 4823  302 L
 531  346 mt 
(80) s
 699 3589 mt 4865 3589 L
 699  301 mt 4865  301 L
 699 3589 mt  699  301 L
4865 3589 mt 4865  301 L
gs 699 302 4167 3288 rc
/c8 { 0.000000 0.000000 1.000000 sr} bdef
c8
5 0 4 0 4 0 4 0 4 0 4 0 5 0 4 0 
4 0 4 0 4 0 4 0 5 0 4 0 4 0 4 0 
4 0 4 0 5 0 4 0 4 0 4 0 4 0 4 0 
5 0 4 0 4 0 4 0 4 0 4 0 5 0 4 0 
4 0 4 0 4 0 4 0 5 0 4 0 4 0 4 0 
4 0 4 0 5 0 4 0 4 0 4 0 4 0 4 0 
5 0 4 0 4 0 4 0 4 0 4 0 5 0 4 0 
4 0 4 0 4 0 4 0 5 0 4 0 4 0 4 0 
4 0 4 0 5 0 4 0 4 0 4 0 4 0 4 0 
5 0 4 0 4 0 4 0 4 0 4 0 5 0 4 0 
4 0 4 0 4 0 4 0 5 0 4 0 4 0 4 0 
4 0 4 0 5 0 4 0 4 0 4 0 4 0 4 0 
5 0 4 0 4 0 4 0 4 0 4 0 5 0 4 0 
4 0 4 0 4 0 4 0 5 0 4 0 4 0 4 0 
4 0 4 0 5 0 4 0 4 0 4 0 4 0 4 0 
5 0 4 0 4 0 4 0 4 0 4 0 5 0 4 0 
4 0 4 0 4 0 4 0 5 0 4 0 4 0 4 0 
4 0 4 0 5 0 4 0 4 0 4 0 4 0 4 0 
5 0 4 0 4 0 4 0 4 0 4 0 5 0 4 0 
4 0 4 0 4 0 4 0 5 0 4 0 4 0 4 0 
4 0 4 0 5 0 4 0 4 0 4 0 4 0 4 0 
5 0 4 0 4 0 4 0 4 0 4 0 5 0 4 0 
4 0 4 0 4 0 4 0 5 0 4 0 4 0 4 0 
4 0 4 0 5 0 4 0 4 0 4 0 4 0 4 0 
5 0 4 0 4 0 4 0 4 0 4 0 5 0 4 0 
4 0 4 0 4 0 4 0 5 0 4 0 4 0 4 0 
4 0 4 0 5 0 4 0 4 0 4 0 4 0 4 0 
5 0 4 0 4 0 4 0 4 0 4 0 5 0 4 0 
4 0 4 0 4 0 4 0 5 0 4 0 4 0 4 0 
4 0 4 0 5 0 4 0 4 0 4 0 4 0 4 0 
5 0 4 0 4 0 4 0 4 0 4 0 5 0 4 0 
4 0 4 0 4 0 4 0 4 0 5 0 4 0 4 0 
4 0 4 0 4 0 5 0 4 0 4 0 4 0 4 0 
4 0 5 0 4 0 4 0 4 0 4 0 4 0 5 0 
4 0 4 0 4 0 4 0 4 0 5 0 4 0 4 0 
4 0 4 0 4 0 5 0 4 0 4 0 4 0 4 0 
4 0 5 0 4 0 4 0 4 0 4 0 4 0 5 0 
4 0 4 0 4 0 3619 3589 300 MP stroke
4 0 4 0 5 0 4 0 4 0 4 0 4 0 4 0 
5 0 4 0 4 0 4 0 4 0 4 0 5 0 4 0 
4 0 4 0 4 0 4 0 5 0 4 0 4 0 4 0 
4 0 4 0 5 0 4 0 4 0 4 0 4 0 4 0 
5 0 4 0 4 0 4 0 4 0 4 0 5 0 4 0 
4 0 4 0 4 0 4 0 5 0 4 0 4 0 4 0 
4 0 4 0 5 0 4 0 4 0 4 0 4 0 4 0 
5 0 4 0 4 0 4 0 4 0 4 0 5 19 4 463 
4 355 4 113 4 -31 4 -919 5 0 4 0 4 0 4 0 
4 0 4 0 5 0 4 0 4 0 4 0 4 0 4 0 
5 0 4 0 4 0 4 0 4 0 4 0 5 0 4 0 
4 0 4 0 4 0 4 0 5 0 4 0 4 0 4 0 
4 0 4 0 5 0 4 0 4 0 4 0 4 0 4 0 
5 0 4 0 4 0 4 0 4 0 4 0 5 0 4 0 
4 0 4 0 4 0 4 0 5 0 4 0 4 0 4 0 
4 0 4 0 5 0 4 0 4 0 4 0 4 0 4 0 
5 0 4 0 4 0 4 0 4 0 4 0 5 0 4 0 
4 0 4 0 4 0 4 0 5 0 4 0 4 0 4 0 
4 0 4 0 5 0 4 0 4 0 4 0 4 0 4 0 
5 0 4 0 4 0 4 0 4 0 4 0 5 0 4 0 
4 0 4 0 4 0 4 0 5 0 4 0 4 0 4 0 
4 0 4 0 5 0 4 0 4 0 4 0 4 0 4 0 
5 0 4 0 4 0 4 0 4 0 4 0 5 0 4 0 
4 0 4 0 4 0 4 0 5 0 4 0 4 0 4 0 
4 0 4 0 5 0 4 0 4 0 4 0 4 0 4 0 
4 0 5 0 4 0 4 0 4 0 4 0 4 0 5 0 
4 0 4 0 4 0 4 0 4 0 5 0 4 0 4 0 
4 0 4 0 4 0 5 0 4 0 4 0 4 0 4 0 
4 0 5 0 4 0 4 0 4 0 4 0 4 0 5 0 
4 0 4 0 4 0 4 0 4 0 5 0 4 0 4 0 
4 0 4 0 4 0 5 0 4 0 4 0 4 0 4 0 
4 0 5 0 4 0 4 0 4 0 4 0 4 0 5 0 
4 0 4 0 4 0 4 0 4 0 5 0 4 0 4 0 
4 0 4 0 4 0 5 0 4 0 4 0 4 0 4 0 
4 0 5 0 4 0 4 0 4 0 4 0 4 0 5 0 
4 0 4 0 4 0 4 0 4 0 5 0 4 0 4 0 
4 0 4 0 4 0 5 0 4 0 4 0 4 0 4 0 
4 0 5 0 4 0 2373 3589 300 MP stroke
4 0 4 0 4 0 4 0 5 0 4 0 4 0 4 0 
4 0 4 0 5 0 4 0 4 0 4 0 4 0 4 0 
5 0 4 0 4 0 4 0 4 0 4 0 5 0 4 0 
4 0 4 0 4 0 4 0 5 0 4 0 4 0 4 0 
4 0 4 0 5 0 4 0 4 0 4 0 4 0 4 0 
5 0 4 0 4 0 4 0 4 0 4 0 5 0 4 0 
4 0 4 0 4 0 4 0 5 0 4 0 4 0 4 0 
4 0 4 0 5 0 4 0 4 0 4 0 4 0 4 0 
5 0 4 0 4 0 4 0 4 0 4 0 5 0 4 0 
4 0 4 0 4 0 4 0 5 0 4 0 4 0 4 0 
4 0 4 0 5 0 4 0 4 0 4 0 4 0 4 0 
5 0 4 0 4 0 4 0 4 0 4 0 5 0 4 0 
4 0 4 0 4 0 4 0 5 0 4 0 4 0 4 0 
4 0 4 0 5 0 4 0 4 0 4 0 4 0 4 0 
5 0 4 0 4 0 4 0 4 0 4 0 5 0 4 0 
4 0 4 0 4 0 4 0 5 0 4 0 4 0 4 0 
4 0 4 0 5 0 4 0 4 0 4 0 4 0 4 0 
5 0 4 0 4 0 4 0 4 0 4 0 5 0 4 0 
4 0 4 0 4 0 4 0 5 0 4 0 4 0 4 0 
4 0 4 0 4 0 5 0 4 0 4 0 4 0 4 0 
4 0 5 0 4 0 4 0 4 0 4 0 4 0 5 0 
4 0 4 0 4 0 4 0 4 0 5 0 4 0 4 0 
4 0 4 0 4 0 5 0 4 0 4 0 4 0 4 0 
4 0 5 0 4 0 4 0 4 0 4 0 4 0 5 0 
4 0 4 0 4 0 4 0 4 0 5 0 4 0 4 0 
4 0 4 0 4 0 5 0 4 0 4 0 4 0 4 0 
4 0 5 0 4 0 4 0 4 0 4 0 4 0 5 0 
4 0 4 0 4 0 4 0 4 0 5 0 4 0 4 0 
4 0 4 0 4 0 5 0 4 0 4 0 4 0 4 0 
4 0 5 0 4 0 4 0 4 0 4 0 4 0 5 0 
4 0 4 0 4 0 4 0 4 0 5 0 4 0 4 0 
4 0 4 0 4 0 5 0 4 0 4 0 4 0 4 0 
4 0 5 0 4 0 4 0 4 0 4 0 4 0 5 0 
4 0 4 0 4 0 4 0 4 0 5 0 4 0 4 0 
4 0 4 0 4 0 5 0 4 0 4 0 4 0 4 0 
4 0 5 0 4 0 4 0 4 0 4 0 4 0 5 0 
4 0 4 0 4 0 4 0 4 0 5 0 4 0 4 0 
4 0 4 0 4 0 1128 3589 300 MP stroke
5 0 4 0 4 0 4 0 4 0 4 0 5 0 4 0 
4 0 4 0 4 0 4 0 5 0 4 0 4 0 4 0 
4 0 4 0 5 0 4 0 4 0 4 0 4 0 4 0 
5 0 4 0 4 0 4 0 4 0 4 0 5 0 4 0 
4 0 4 0 4 0 4 0 5 0 4 0 4 0 4 0 
4 0 4 0 5 0 4 0 4 0 4 0 4 0 4 0 
5 0 4 0 4 0 4 0 4 0 4 0 5 0 4 0 
4 0 4 0 4 0 4 0 5 0 4 0 4 0 4 0 
4 0 4 0 5 0 4 0 4 0 4 0 4 0 4 0 
5 0 4 0 4 0 4 0 4 0 4 0 5 0 4 0 
4 0 4 0 4 0 4 0 5 0 4 0 4 0 4 0 
4 0 4 0 5 0 4 0 4 0 4 0 4 0 4 0 
5 0 4 0 4 0 4 0 4 0 4 0 4 0 699 3589 104 MP stroke
/c9 { 0.000000 0.500000 0.000000 sr} bdef
c9
5 0 4 0 4 0 4 0 4 0 4 0 5 0 4 0 
4 0 4 0 4 0 4 0 5 0 4 0 4 0 4 0 
4 0 4 0 5 0 4 0 4 0 4 0 4 0 4 0 
5 0 4 0 4 0 4 0 4 0 4 0 5 0 4 0 
4 0 4 0 4 0 4 0 5 0 4 0 4 0 4 0 
4 0 4 0 5 0 4 0 4 0 4 0 4 0 4 0 
5 0 4 0 4 0 4 0 4 0 4 0 5 0 4 0 
4 0 4 0 4 0 4 0 5 0 4 0 4 0 4 0 
4 0 4 0 5 0 4 0 4 0 4 0 4 0 4 0 
5 0 4 0 4 0 4 0 4 0 4 0 5 0 4 0 
4 0 4 0 4 0 4 0 5 0 4 0 4 0 4 0 
4 0 4 0 5 0 4 0 4 0 4 0 4 0 4 0 
5 0 4 0 4 0 4 0 4 0 4 0 5 0 4 0 
4 0 4 0 4 0 4 0 5 0 4 0 4 0 4 0 
4 0 4 0 5 0 4 0 4 0 4 0 4 0 4 0 
5 0 4 0 4 0 4 0 4 0 4 0 5 0 4 0 
4 0 4 0 4 0 4 0 5 0 4 0 4 0 4 0 
4 0 4 0 5 0 4 0 4 0 4 0 4 0 4 0 
5 0 4 0 4 0 4 0 4 0 4 0 5 0 4 0 
4 0 4 0 4 0 4 0 5 0 4 0 4 0 4 0 
4 0 4 0 5 0 4 0 4 0 4 0 4 0 4 0 
5 0 4 0 4 0 4 0 4 0 4 0 5 0 4 0 
4 0 4 0 4 0 4 0 5 0 4 0 4 0 4 0 
4 0 4 0 5 0 4 0 4 0 4 0 4 0 4 0 
5 0 4 0 4 0 4 0 4 0 4 0 5 0 4 0 
4 0 4 0 4 0 4 0 5 0 4 0 4 0 4 0 
4 0 4 0 5 0 4 0 4 0 4 0 4 0 4 0 
5 0 4 0 4 0 4 0 4 0 4 0 5 0 4 0 
4 0 4 0 4 0 4 0 5 0 4 0 4 0 4 0 
4 0 4 0 5 0 4 0 4 0 4 0 4 0 4 0 
5 0 4 0 4 0 4 0 4 0 4 0 5 0 4 0 
4 0 4 0 4 0 4 0 4 0 5 0 4 0 4 0 
4 0 4 0 4 0 5 0 4 0 4 0 4 0 4 0 
4 0 5 0 4 0 4 0 4 0 4 0 4 0 5 0 
4 0 4 0 4 0 4 0 4 0 5 0 4 0 4 0 
4 0 4 0 4 0 5 0 4 0 4 0 4 0 4 0 
4 0 5 0 4 0 4 0 4 0 4 0 4 0 5 0 
4 0 4 0 4 0 3619 3589 300 MP stroke
4 0 4 0 5 0 4 0 4 0 4 0 4 0 4 0 
5 0 4 0 4 0 4 0 4 0 4 0 5 0 4 0 
4 0 4 0 4 0 4 0 5 0 4 0 4 0 4 0 
4 0 4 0 5 0 4 0 4 0 4 0 4 0 4 0 
5 0 4 0 4 0 4 0 4 0 4 0 5 0 4 0 
4 0 4 0 4 0 4 0 5 0 4 0 4 0 4 0 
4 0 4 0 5 0 4 0 4 0 4 0 4 0 4 0 
5 0 4 0 4 0 4 0 4 0 4 0 5 0 4 0 
4 0 4 0 4 0 4 0 5 0 4 0 4 0 4 0 
4 0 4 0 5 0 4 0 4 0 4 0 4 0 4 0 
5 0 4 0 4 0 4 0 4 0 4 0 5 0 4 0 
4 0 4 0 4 0 4 0 5 0 4 0 4 0 4 0 
4 0 4 0 5 0 4 0 4 0 4 0 4 0 4 0 
5 0 4 0 4 0 4 0 4 0 4 0 5 0 4 0 
4 0 4 0 4 0 4 0 5 0 4 0 4 0 4 0 
4 0 4 0 5 0 4 0 4 0 4 0 4 0 4 0 
5 0 4 0 4 0 4 0 4 0 4 0 5 0 4 0 
4 0 4 0 4 0 4 0 5 0 4 0 4 0 4 0 
4 0 4 0 5 0 4 0 4 0 4 0 4 0 4 0 
5 0 4 0 4 0 4 0 4 0 4 0 5 0 4 0 
4 0 4 0 4 0 4 0 5 0 4 0 4 0 4 0 
4 0 4 0 5 0 4 0 4 0 4 0 4 0 4 0 
5 0 4 0 4 0 4 0 4 0 4 0 5 0 4 0 
4 0 4 0 4 0 4 0 5 0 4 0 4 0 4 0 
4 0 4 0 5 0 4 0 4 0 4 0 4 0 4 0 
4 0 5 0 4 0 4 0 4 0 4 0 4 0 5 0 
4 0 4 0 4 0 4 0 4 0 5 0 4 0 4 0 
4 0 4 0 4 0 5 0 4 0 4 0 4 0 4 0 
4 0 5 0 4 0 4 0 4 0 4 0 4 0 5 0 
4 0 4 0 4 0 4 0 4 0 5 0 4 0 4 0 
4 0 4 0 4 0 5 0 4 0 4 0 4 0 4 0 
4 0 5 0 4 0 4 0 4 0 4 0 4 0 5 0 
4 0 4 0 4 0 4 0 4 0 5 0 4 0 4 0 
4 0 4 0 4 0 5 0 4 0 4 0 4 0 4 0 
4 0 5 0 4 0 4 0 4 0 4 0 4 0 5 0 
4 0 4 0 4 0 4 0 4 0 5 0 4 0 4 0 
4 0 4 0 4 0 5 0 4 0 4 0 4 0 4 0 
4 0 5 0 4 0 2373 3589 300 MP stroke
4 0 4 0 4 0 4 0 5 0 4 0 4 0 4 0 
4 0 4 0 5 0 4 0 4 0 4 0 4 0 4 0 
5 0 4 0 4 0 4 0 4 0 4 0 5 0 4 0 
4 0 4 0 4 0 4 0 5 0 4 0 4 0 4 0 
4 0 4 0 5 0 4 0 4 0 4 0 4 0 4 0 
5 0 4 0 4 0 4 0 4 0 4 0 5 0 4 0 
4 0 4 0 4 0 4 0 5 0 4 0 4 0 4 0 
4 0 4 0 5 0 4 0 4 0 4 0 4 0 4 0 
5 0 4 0 4 0 4 0 4 0 4 0 5 0 4 0 
4 0 4 0 4 0 4 0 5 0 4 0 4 0 4 0 
4 0 4 0 5 0 4 0 4 0 4 0 4 0 4 0 
5 0 4 0 4 0 4 0 4 0 4 0 5 0 4 0 
4 0 4 0 4 0 4 0 5 0 4 0 4 0 4 0 
4 0 4 0 5 0 4 0 4 0 4 0 4 0 4 0 
5 0 4 0 4 0 4 0 4 0 4 0 5 0 4 0 
4 0 4 0 4 0 4 0 5 0 4 0 4 0 4 0 
4 0 4 0 5 0 4 0 4 0 4 0 4 0 4 0 
5 0 4 0 4 0 4 0 4 0 4 0 5 0 4 0 
4 0 4 0 4 0 4 0 5 0 4 0 4 0 4 0 
4 0 4 0 4 0 5 0 4 0 4 0 4 0 4 0 
4 0 5 0 4 0 4 0 4 0 4 0 4 0 5 0 
4 0 4 0 4 0 4 0 4 0 5 0 4 0 4 0 
4 0 4 0 4 0 5 0 4 0 4 0 4 0 4 0 
4 0 5 0 4 0 4 0 4 0 4 0 4 0 5 0 
4 0 4 0 4 0 4 0 4 0 5 0 4 0 4 0 
4 0 4 0 4 0 5 0 4 0 4 0 4 0 4 0 
4 0 5 0 4 0 4 0 4 0 4 0 4 0 5 0 
4 0 4 0 4 0 4 0 4 0 5 0 4 0 4 0 
4 0 4 0 4 0 5 0 4 0 4 0 4 0 4 0 
4 0 5 0 4 0 4 0 4 0 4 0 4 0 5 0 
4 0 4 0 4 0 4 0 4 0 5 0 4 0 4 0 
4 0 4 0 4 0 5 0 4 0 4 0 4 0 4 0 
4 0 5 0 4 0 4 0 4 0 4 0 4 0 5 0 
4 0 4 0 4 0 4 0 4 0 5 0 4 0 4 0 
4 0 4 0 4 0 5 0 4 0 4 0 4 0 4 0 
4 0 5 0 4 0 4 0 4 0 4 0 4 0 5 0 
4 0 4 0 4 0 4 0 4 0 5 0 4 0 4 0 
4 0 4 0 4 0 1128 3589 300 MP stroke
5 0 4 0 4 0 4 0 4 0 4 0 5 0 4 0 
4 0 4 0 4 0 4 0 5 0 4 0 4 0 4 0 
4 0 4 0 5 0 4 0 4 0 4 0 4 0 4 0 
5 0 4 0 4 0 4 0 4 0 4 0 5 0 4 0 
4 0 4 0 4 0 4 0 5 0 4 0 4 0 4 0 
4 0 4 0 5 0 4 0 4 0 4 0 4 0 4 0 
5 0 4 0 4 0 4 0 4 0 4 0 5 0 4 0 
4 0 4 0 4 0 4 0 5 0 4 0 4 0 4 0 
4 0 4 0 5 0 4 0 4 0 4 0 4 0 4 0 
5 0 4 0 4 0 4 0 4 0 4 0 5 0 4 0 
4 0 4 0 4 0 4 0 5 0 4 0 4 0 4 0 
4 0 4 0 5 0 4 0 4 0 4 0 4 0 4 0 
5 0 4 0 4 0 4 0 4 0 4 0 4 0 699 3589 104 MP stroke
/c10 { 1.000000 0.000000 0.000000 sr} bdef
c10
5 0 4 0 4 0 4 0 4 0 4 0 5 0 4 0 
4 0 4 0 4 0 4 0 5 0 4 0 4 0 4 0 
4 0 4 0 5 0 4 0 4 0 4 0 4 0 4 0 
5 0 4 0 4 0 4 0 4 0 4 0 5 0 4 0 
4 0 4 0 4 0 4 0 5 0 4 0 4 0 4 0 
4 0 4 0 5 0 4 0 4 0 4 0 4 0 4 0 
5 0 4 0 4 0 4 0 4 0 4 0 5 0 4 0 
4 0 4 0 4 0 4 0 5 0 4 0 4 0 4 0 
4 0 4 0 5 0 4 0 4 0 4 0 4 0 4 0 
5 0 4 0 4 0 4 0 4 0 4 0 5 0 4 115 
4 0 4 0 4 0 4 0 5 0 4 0 4 0 4 0 
4 0 4 0 5 0 4 0 4 0 4 0 4 0 4 0 
5 0 4 0 4 0 4 0 4 0 4 0 5 0 4 0 
4 0 4 0 4 0 4 0 5 0 4 0 4 0 4 0 
4 0 4 0 5 0 4 0 4 0 4 0 4 0 4 0 
5 0 4 0 4 0 4 0 4 0 4 0 5 0 4 0 
4 0 4 0 4 0 4 0 5 0 4 0 4 0 4 0 
4 0 4 0 5 0 4 0 4 0 4 0 4 0 4 0 
5 0 4 0 4 0 4 0 4 0 4 0 5 0 4 0 
4 0 4 0 4 0 4 0 5 0 4 0 4 0 4 0 
4 0 4 0 5 0 4 0 4 0 4 0 4 0 4 0 
5 0 4 0 4 0 4 0 4 0 4 0 5 0 4 0 
4 0 4 0 4 0 4 0 5 0 4 0 4 0 4 0 
4 0 4 0 5 0 4 0 4 0 4 0 4 0 4 0 
5 0 4 0 4 0 4 0 4 0 4 0 5 0 4 0 
4 0 4 0 4 0 4 0 5 0 4 0 4 0 4 0 
4 0 4 0 5 0 4 0 4 0 4 0 4 0 4 0 
5 0 4 0 4 0 4 0 4 0 4 0 5 0 4 0 
4 0 4 0 4 0 4 0 5 0 4 0 4 0 4 0 
4 0 4 0 5 0 4 0 4 0 4 0 4 0 4 0 
5 0 4 0 4 0 4 0 4 0 4 0 5 0 4 0 
4 0 4 0 4 0 4 0 4 0 5 0 4 0 4 0 
4 0 4 0 4 0 5 0 4 0 4 0 4 0 4 0 
4 0 5 0 4 0 4 0 4 0 4 0 4 0 5 0 
4 0 4 0 4 0 4 0 4 0 5 0 4 0 4 0 
4 0 4 0 4 0 5 0 4 0 4 0 4 0 4 0 
4 0 5 0 4 0 4 0 4 0 4 0 4 0 5 0 
4 0 4 0 4 0 3619 3474 300 MP stroke
4 39 4 30 5 0 4 0 4 0 4 0 4 0 4 0 
5 0 4 0 4 0 4 0 4 0 4 0 5 0 4 0 
4 0 4 80 4 142 4 -406 5 0 4 0 4 0 4 0 
4 0 4 0 5 0 4 0 4 0 4 0 4 0 4 0 
5 0 4 0 4 0 4 0 4 0 4 0 5 0 4 0 
4 0 4 0 4 0 4 0 5 0 4 0 4 0 4 0 
4 0 4 0 5 0 4 0 4 0 4 0 4 0 4 0 
5 0 4 0 4 0 4 0 4 0 4 0 5 0 4 0 
4 0 4 0 4 0 4 0 5 0 4 0 4 0 4 0 
4 0 4 0 5 0 4 0 4 0 4 0 4 0 4 0 
5 0 4 0 4 0 4 0 4 0 4 0 5 0 4 0 
4 0 4 0 4 0 4 0 5 0 4 0 4 0 4 0 
4 0 4 0 5 0 4 0 4 0 4 0 4 0 4 0 
5 0 4 0 4 0 4 0 4 0 4 0 5 0 4 0 
4 0 4 0 4 0 4 0 5 0 4 0 4 0 4 0 
4 0 4 0 5 0 4 0 4 0 4 0 4 0 4 0 
5 0 4 0 4 0 4 0 4 0 4 0 5 0 4 0 
4 0 4 0 4 0 4 0 5 0 4 0 4 0 4 0 
4 0 4 0 5 0 4 0 4 0 4 0 4 0 4 0 
5 0 4 0 4 0 4 0 4 0 4 0 5 0 4 0 
4 0 4 0 4 0 4 0 5 0 4 0 4 0 4 0 
4 0 4 0 5 0 4 0 4 0 4 0 4 0 4 0 
5 0 4 0 4 0 4 0 4 0 4 0 5 0 4 0 
4 0 4 0 4 0 4 0 5 0 4 0 4 0 4 0 
4 0 4 0 5 0 4 0 4 0 4 0 4 0 4 0 
4 0 5 0 4 0 4 0 4 0 4 0 4 0 5 0 
4 0 4 0 4 0 4 0 4 0 5 0 4 0 4 0 
4 0 4 0 4 0 5 0 4 0 4 0 4 0 4 0 
4 0 5 0 4 0 4 0 4 0 4 0 4 0 5 0 
4 0 4 0 4 0 4 0 4 0 5 0 4 0 4 0 
4 0 4 0 4 0 5 0 4 0 4 0 4 0 4 0 
4 0 5 0 4 0 4 0 4 0 4 0 4 0 5 0 
4 0 4 0 4 0 4 0 4 0 5 0 4 0 4 0 
4 0 4 0 4 0 5 0 4 0 4 0 4 0 4 0 
4 0 5 0 4 0 4 0 4 0 4 0 4 0 5 0 
4 0 4 0 4 0 4 0 4 0 5 0 4 0 4 0 
4 0 4 0 4 0 5 0 4 0 4 0 4 0 4 0 
4 0 5 0 4 0 2373 3589 300 MP stroke
4 0 4 0 4 0 4 0 5 0 4 0 4 0 4 0 
4 0 4 0 5 0 4 0 4 0 4 0 4 0 4 0 
5 0 4 0 4 0 4 0 4 0 4 0 5 0 4 0 
4 0 4 0 4 0 4 0 5 0 4 0 4 0 4 0 
4 0 4 0 5 0 4 0 4 0 4 0 4 0 4 0 
5 0 4 0 4 0 4 0 4 0 4 0 5 0 4 0 
4 0 4 0 4 0 4 0 5 0 4 0 4 0 4 0 
4 0 4 0 5 0 4 0 4 0 4 0 4 0 4 0 
5 0 4 0 4 0 4 0 4 0 4 0 5 0 4 0 
4 0 4 0 4 0 4 0 5 0 4 0 4 0 4 0 
4 0 4 0 5 0 4 0 4 0 4 0 4 0 4 0 
5 0 4 0 4 0 4 0 4 0 4 0 5 0 4 0 
4 0 4 0 4 0 4 0 5 0 4 0 4 0 4 0 
4 0 4 0 5 0 4 0 4 0 4 0 4 0 4 0 
5 0 4 0 4 0 4 0 4 0 4 0 5 0 4 0 
4 0 4 0 4 0 4 0 5 0 4 0 4 0 4 0 
4 0 4 0 5 0 4 0 4 0 4 0 4 0 4 0 
5 0 4 0 4 0 4 0 4 0 4 0 5 0 4 0 
4 0 4 0 4 0 4 0 5 0 4 0 4 0 4 0 
4 0 4 0 4 0 5 0 4 0 4 0 4 0 4 0 
4 0 5 0 4 0 4 0 4 0 4 0 4 0 5 0 
4 0 4 0 4 0 4 0 4 0 5 0 4 0 4 0 
4 0 4 0 4 0 5 0 4 0 4 0 4 0 4 0 
4 0 5 0 4 0 4 0 4 0 4 0 4 0 5 0 
4 0 4 0 4 0 4 0 4 0 5 0 4 0 4 0 
4 0 4 0 4 0 5 0 4 0 4 0 4 0 4 0 
4 0 5 0 4 0 4 0 4 0 4 0 4 0 5 0 
4 0 4 0 4 0 4 0 4 0 5 0 4 0 4 0 
4 0 4 0 4 0 5 0 4 0 4 0 4 0 4 0 
4 0 5 0 4 0 4 0 4 0 4 0 4 0 5 0 
4 0 4 0 4 0 4 0 4 0 5 0 4 0 4 0 
4 0 4 0 4 0 5 0 4 0 4 0 4 0 4 0 
4 0 5 0 4 0 4 0 4 0 4 0 4 0 5 0 
4 0 4 0 4 0 4 0 4 0 5 0 4 0 4 0 
4 115 4 0 4 0 5 0 4 0 4 0 4 0 4 0 
4 0 5 0 4 0 4 0 4 0 4 0 4 0 5 0 
4 0 4 0 4 0 4 0 4 0 5 0 4 0 4 0 
4 0 4 0 4 0 1128 3474 300 MP stroke
5 0 4 0 4 0 4 0 4 0 4 0 5 0 4 0 
4 0 4 0 4 0 4 0 5 0 4 0 4 0 4 0 
4 0 4 0 5 0 4 0 4 0 4 0 4 0 4 0 
5 0 4 0 4 0 4 0 4 0 4 0 5 0 4 0 
4 0 4 0 4 0 4 0 5 0 4 0 4 0 4 0 
4 0 4 0 5 0 4 0 4 0 4 0 4 0 4 0 
5 0 4 0 4 0 4 0 4 0 4 0 5 0 4 0 
4 0 4 0 4 0 4 0 5 0 4 0 4 0 4 0 
4 0 4 0 5 0 4 0 4 0 4 0 4 0 4 0 
5 0 4 0 4 0 4 0 4 0 4 0 5 0 4 0 
4 0 4 0 4 3109 4 -3088 5 -136 4 0 4 0 4 0 
4 0 4 0 5 0 4 0 4 0 4 0 4 0 4 0 
5 0 4 0 4 0 4 0 4 0 4 0 4 0 699 3589 104 MP stroke
/c11 { 0.000000 0.750000 0.750000 sr} bdef
c11
5 0 4 0 4 0 4 0 4 0 4 0 5 0 4 0 
4 0 4 0 4 0 4 0 5 0 4 0 4 0 4 0 
4 0 4 0 5 0 4 0 4 0 4 0 4 0 4 0 
5 0 4 0 4 0 4 0 4 0 4 0 5 0 4 0 
4 0 4 0 4 0 4 0 5 0 4 0 4 0 4 0 
4 0 4 0 5 0 4 0 4 0 4 0 4 0 4 0 
5 0 4 0 4 0 4 0 4 0 4 0 5 0 4 0 
4 0 4 0 4 0 4 0 5 0 4 0 4 0 4 0 
4 0 4 0 5 0 4 0 4 0 4 0 4 0 4 0 
5 0 4 0 4 0 4 0 4 0 4 0 5 0 4 0 
4 0 4 0 4 0 4 0 5 0 4 0 4 0 4 0 
4 0 4 0 5 0 4 0 4 0 4 0 4 0 4 0 
5 0 4 0 4 0 4 0 4 0 4 0 5 0 4 0 
4 0 4 0 4 0 4 0 5 0 4 0 4 0 4 0 
4 0 4 0 5 0 4 0 4 0 4 0 4 0 4 0 
5 0 4 0 4 0 4 0 4 0 4 0 5 0 4 0 
4 0 4 0 4 0 4 0 5 0 4 0 4 0 4 0 
4 0 4 0 5 0 4 0 4 0 4 0 4 0 4 0 
5 0 4 0 4 0 4 0 4 0 4 0 5 0 4 0 
4 0 4 0 4 0 4 0 5 0 4 0 4 0 4 0 
4 0 4 0 5 0 4 0 4 0 4 0 4 0 4 0 
5 0 4 0 4 0 4 0 4 0 4 0 5 0 4 0 
4 0 4 0 4 0 4 0 5 0 4 0 4 0 4 0 
4 0 4 0 5 0 4 0 4 0 4 0 4 0 4 0 
5 0 4 0 4 0 4 0 4 0 4 0 5 0 4 0 
4 0 4 0 4 0 4 0 5 0 4 0 4 0 4 0 
4 0 4 0 5 0 4 0 4 0 4 0 4 0 4 0 
5 0 4 0 4 0 4 0 4 0 4 0 5 0 4 0 
4 0 4 0 4 0 4 0 5 0 4 0 4 0 4 0 
4 0 4 0 5 0 4 0 4 0 4 0 4 0 4 0 
5 0 4 0 4 0 4 0 4 0 4 0 5 0 4 0 
4 0 4 0 4 0 4 0 4 0 5 0 4 0 4 0 
4 0 4 0 4 0 5 0 4 0 4 0 4 0 4 0 
4 0 5 0 4 0 4 0 4 0 4 0 4 0 5 0 
4 0 4 0 4 0 4 0 4 0 5 0 4 0 4 0 
4 0 4 0 4 0 5 0 4 0 4 0 4 0 4 0 
4 0 5 0 4 0 4 0 4 0 4 0 4 0 5 0 
4 0 4 0 4 0 3619 3589 300 MP stroke
4 0 4 0 5 0 4 0 4 0 4 0 4 0 4 0 
5 0 4 0 4 0 4 0 4 0 4 0 5 0 4 0 
4 0 4 0 4 0 4 0 5 0 4 0 4 0 4 0 
4 0 4 0 5 0 4 0 4 0 4 0 4 0 4 0 
5 0 4 0 4 0 4 0 4 0 4 0 5 0 4 0 
4 0 4 0 4 0 4 0 5 0 4 0 4 0 4 0 
4 0 4 0 5 0 4 0 4 0 4 0 4 0 4 0 
5 0 4 0 4 0 4 0 4 0 4 0 5 0 4 0 
4 0 4 0 4 0 4 0 5 0 4 0 4 0 4 0 
4 0 4 0 5 0 4 0 4 0 4 0 4 0 4 0 
5 0 4 0 4 0 4 0 4 0 4 0 5 0 4 0 
4 0 4 0 4 0 4 0 5 0 4 0 4 0 4 0 
4 0 4 0 5 0 4 0 4 0 4 0 4 0 4 0 
5 0 4 0 4 0 4 0 4 0 4 0 5 0 4 0 
4 0 4 0 4 0 4 0 5 0 4 0 4 0 4 0 
4 0 4 0 5 0 4 0 4 0 4 0 4 0 4 0 
5 0 4 0 4 0 4 0 4 0 4 0 5 0 4 0 
4 0 4 0 4 0 4 0 5 0 4 0 4 0 4 0 
4 0 4 0 5 0 4 0 4 0 4 0 4 0 4 0 
5 0 4 0 4 0 4 0 4 0 4 0 5 0 4 0 
4 0 4 0 4 0 4 0 5 0 4 0 4 0 4 0 
4 0 4 0 5 0 4 0 4 0 4 0 4 0 4 0 
5 0 4 0 4 0 4 0 4 0 4 0 5 0 4 0 
4 0 4 0 4 0 4 0 5 0 4 0 4 0 4 0 
4 0 4 0 5 0 4 0 4 0 4 0 4 0 4 0 
4 0 5 0 4 0 4 0 4 0 4 0 4 0 5 0 
4 0 4 0 4 0 4 0 4 0 5 0 4 0 4 0 
4 0 4 0 4 0 5 0 4 0 4 0 4 0 4 0 
4 0 5 0 4 0 4 0 4 0 4 0 4 0 5 124 
4 0 4 0 4 0 4 0 4 0 5 0 4 0 4 0 
4 0 4 0 4 0 5 0 4 0 4 0 4 0 4 0 
4 0 5 0 4 0 4 0 4 0 4 0 4 0 5 0 
4 0 4 0 4 0 4 0 4 0 5 0 4 0 4 0 
4 0 4 0 4 0 5 0 4 0 4 0 4 0 4 0 
4 0 5 0 4 0 4 0 4 0 4 0 4 0 5 0 
4 0 4 0 4 0 4 0 4 0 5 0 4 0 4 0 
4 0 4 0 4 0 5 0 4 0 4 0 4 0 4 0 
4 0 5 0 4 0 2373 3465 300 MP stroke
4 0 4 0 4 0 4 0 5 0 4 0 4 0 4 0 
4 0 4 0 5 0 4 0 4 0 4 0 4 0 4 0 
5 0 4 0 4 0 4 0 4 0 4 0 5 0 4 0 
4 0 4 0 4 0 4 0 5 0 4 0 4 0 4 0 
4 0 4 0 5 0 4 0 4 0 4 0 4 0 4 0 
5 0 4 0 4 0 4 0 4 0 4 0 5 0 4 0 
4 0 4 0 4 0 4 0 5 0 4 0 4 0 4 0 
4 0 4 0 5 0 4 0 4 0 4 0 4 0 4 0 
5 0 4 0 4 0 4 0 4 0 4 0 5 0 4 0 
4 0 4 0 4 0 4 0 5 0 4 0 4 0 4 0 
4 0 4 0 5 0 4 0 4 0 4 0 4 0 4 0 
5 0 4 -8 4 -13 4 0 4 0 4 0 5 0 4 0 
4 0 4 0 4 0 4 0 5 0 4 0 4 0 4 0 
4 0 4 0 5 0 4 0 4 0 4 0 4 0 4 0 
5 0 4 0 4 0 4 0 4 0 4 0 5 0 4 0 
4 0 4 0 4 0 4 0 5 0 4 0 4 0 4 0 
4 0 4 0 5 0 4 0 4 -4 4 96 4 -105 4 -90 
5 0 4 0 4 0 4 0 4 0 4 0 5 0 4 0 
4 0 4 0 4 0 4 0 5 0 4 0 4 0 4 0 
4 0 4 0 4 0 5 0 4 0 4 0 4 0 4 0 
4 0 5 0 4 0 4 0 4 0 4 0 4 0 5 0 
4 0 4 0 4 0 4 0 4 0 5 0 4 0 4 0 
4 0 4 0 4 0 5 0 4 0 4 0 4 0 4 0 
4 0 5 0 4 0 4 0 4 0 4 0 4 0 5 0 
4 0 4 0 4 0 4 0 4 0 5 0 4 0 4 0 
4 0 4 0 4 0 5 0 4 0 4 0 4 0 4 0 
4 0 5 0 4 0 4 0 4 0 4 0 4 0 5 0 
4 0 4 0 4 0 4 0 4 0 5 0 4 0 4 0 
4 0 4 0 4 0 5 0 4 0 4 0 4 0 4 0 
4 0 5 0 4 0 4 0 4 0 4 0 4 0 5 0 
4 0 4 0 4 0 4 0 4 0 5 0 4 0 4 0 
4 0 4 0 4 0 5 0 4 0 4 0 4 0 4 0 
4 0 5 0 4 0 4 0 4 0 4 0 4 0 5 0 
4 0 4 0 4 0 4 0 4 0 5 0 4 0 4 0 
4 0 4 0 4 0 5 0 4 0 4 0 4 0 4 0 
4 0 5 0 4 0 4 0 4 0 4 0 4 0 5 0 
4 0 4 0 4 0 4 0 4 0 5 0 4 0 4 0 
4 0 4 0 4 0 1128 3589 300 MP stroke
5 0 4 0 4 0 4 0 4 0 4 0 5 0 4 0 
4 0 4 0 4 0 4 0 5 0 4 0 4 0 4 0 
4 0 4 0 5 0 4 0 4 0 4 0 4 0 4 0 
5 0 4 0 4 0 4 0 4 0 4 0 5 0 4 0 
4 0 4 0 4 0 4 0 5 0 4 0 4 0 4 0 
4 0 4 0 5 0 4 0 4 0 4 0 4 0 4 0 
5 0 4 0 4 0 4 0 4 0 4 0 5 0 4 0 
4 0 4 0 4 0 4 0 5 0 4 0 4 0 4 0 
4 0 4 0 5 0 4 0 4 0 4 0 4 0 4 0 
5 0 4 0 4 0 4 0 4 0 4 0 5 0 4 0 
4 0 4 0 4 0 4 0 5 0 4 0 4 0 4 0 
4 0 4 0 5 0 4 0 4 0 4 0 4 0 4 0 
5 0 4 0 4 0 4 0 4 0 4 0 4 0 699 3589 104 MP stroke
/c12 { 0.750000 0.000000 0.750000 sr} bdef
c12
5 0 4 0 4 0 4 0 4 0 4 0 5 0 4 0 
4 0 4 0 4 0 4 0 5 0 4 0 4 0 4 0 
4 0 4 0 5 0 4 0 4 0 4 0 4 0 4 0 
5 0 4 0 4 0 4 0 4 0 4 0 5 0 4 0 
4 0 4 0 4 0 4 0 5 0 4 0 4 0 4 0 
4 0 4 0 5 0 4 0 4 0 4 0 4 0 4 0 
5 0 4 0 4 0 4 0 4 0 4 0 5 0 4 0 
4 0 4 0 4 0 4 0 5 0 4 0 4 0 4 0 
4 0 4 0 5 0 4 0 4 0 4 0 4 0 4 0 
5 0 4 0 4 0 4 0 4 0 4 107 5 -88 4 -121 
4 0 4 0 4 0 4 0 5 0 4 0 4 0 4 0 
4 0 4 0 5 0 4 0 4 0 4 0 4 0 4 0 
5 0 4 0 4 0 4 0 4 0 4 0 5 0 4 0 
4 0 4 0 4 0 4 0 5 0 4 0 4 0 4 0 
4 0 4 0 5 0 4 0 4 0 4 0 4 0 4 0 
5 0 4 0 4 0 4 0 4 0 4 0 5 0 4 0 
4 0 4 0 4 0 4 0 5 0 4 0 4 0 4 0 
4 0 4 0 5 0 4 0 4 0 4 0 4 0 4 0 
5 0 4 0 4 0 4 0 4 0 4 0 5 0 4 0 
4 0 4 0 4 0 4 0 5 0 4 0 4 0 4 0 
4 0 4 0 5 0 4 0 4 0 4 0 4 0 4 0 
5 0 4 0 4 0 4 0 4 0 4 0 5 0 4 0 
4 0 4 0 4 0 4 0 5 0 4 0 4 0 4 0 
4 0 4 0 5 0 4 0 4 0 4 0 4 0 4 0 
5 0 4 0 4 0 4 0 4 0 4 0 5 0 4 0 
4 0 4 0 4 0 4 0 5 0 4 0 4 0 4 0 
4 0 4 0 5 0 4 0 4 0 4 0 4 0 4 0 
5 0 4 0 4 0 4 0 4 0 4 0 5 0 4 0 
4 0 4 0 4 0 4 0 5 0 4 0 4 0 4 0 
4 0 4 0 5 0 4 0 4 0 4 0 4 0 4 0 
5 0 4 0 4 0 4 0 4 0 4 0 5 0 4 0 
4 0 4 0 4 0 4 0 4 0 5 0 4 0 4 0 
4 0 4 0 4 0 5 0 4 0 4 0 4 0 4 0 
4 0 5 0 4 0 4 0 4 0 4 0 4 0 5 0 
4 0 4 0 4 0 4 0 4 0 5 0 4 0 4 0 
4 0 4 0 4 0 5 0 4 0 4 0 4 0 4 0 
4 0 5 0 4 0 4 0 4 0 4 0 4 0 5 0 
4 0 4 0 4 0 3619 3589 300 MP stroke
4 0 4 0 5 0 4 0 4 0 4 0 4 0 4 0 
5 0 4 0 4 0 4 0 4 0 4 0 5 0 4 0 
4 0 4 0 4 0 4 102 5 0 4 0 4 0 4 0 
4 0 4 0 5 0 4 0 4 0 4 0 4 0 4 0 
5 0 4 0 4 0 4 0 4 776 4 278 5 -1156 4 0 
4 0 4 0 4 0 4 0 5 0 4 0 4 0 4 0 
4 0 4 0 5 0 4 0 4 0 4 0 4 0 4 0 
5 0 4 0 4 0 4 0 4 0 4 0 5 0 4 0 
4 0 4 0 4 0 4 102 5 0 4 0 4 0 4 0 
4 0 4 0 5 0 4 0 4 0 4 0 4 0 4 0 
5 0 4 0 4 0 4 0 4 0 4 0 5 0 4 0 
4 0 4 0 4 0 4 0 5 0 4 0 4 0 4 0 
4 0 4 0 5 0 4 0 4 0 4 0 4 0 4 0 
5 0 4 0 4 0 4 0 4 0 4 0 5 0 4 0 
4 0 4 0 4 0 4 0 5 0 4 0 4 0 4 0 
4 0 4 0 5 0 4 0 4 0 4 0 4 0 4 0 
5 0 4 0 4 0 4 0 4 0 4 0 5 0 4 0 
4 0 4 0 4 0 4 0 5 0 4 0 4 0 4 0 
4 0 4 0 5 0 4 0 4 0 4 0 4 0 4 0 
5 0 4 0 4 0 4 0 4 0 4 0 5 0 4 0 
4 0 4 0 4 0 4 0 5 0 4 0 4 0 4 0 
4 0 4 0 5 0 4 0 4 0 4 0 4 0 4 0 
5 0 4 0 4 0 4 0 4 0 4 0 5 0 4 0 
4 0 4 0 4 0 4 0 5 0 4 0 4 0 4 0 
4 0 4 0 5 0 4 0 4 0 4 0 4 0 4 0 
4 0 5 0 4 0 4 0 4 0 4 0 4 0 5 0 
4 0 4 0 4 0 4 0 4 0 5 0 4 0 4 0 
4 0 4 0 4 0 5 0 4 0 4 0 4 0 4 0 
4 0 5 0 4 0 4 0 4 0 4 60 4 -12 5 -150 
4 0 4 0 4 0 4 0 4 0 5 0 4 0 4 0 
4 0 4 0 4 0 5 0 4 0 4 0 4 0 4 0 
4 0 5 0 4 0 4 0 4 0 4 0 4 0 5 0 
4 0 4 0 4 0 4 0 4 0 5 0 4 0 4 0 
4 0 4 0 4 0 5 0 4 0 4 0 4 0 4 0 
4 0 5 0 4 0 4 0 4 0 4 0 4 0 5 0 
4 0 4 0 4 0 4 0 4 0 5 0 4 0 4 0 
4 0 4 0 4 0 5 0 4 0 4 0 4 0 4 0 
4 0 5 0 4 0 2373 3589 300 MP stroke
4 0 4 0 4 0 4 0 5 0 4 0 4 0 4 0 
4 0 4 0 5 0 4 0 4 0 4 0 4 0 4 0 
5 0 4 0 4 0 4 0 4 0 4 0 5 0 4 0 
4 0 4 0 4 0 4 0 5 0 4 0 4 0 4 0 
4 0 4 0 5 0 4 0 4 0 4 0 4 0 4 0 
5 0 4 0 4 0 4 0 4 0 4 0 5 0 4 0 
4 0 4 0 4 0 4 0 5 0 4 0 4 0 4 0 
4 0 4 0 5 0 4 0 4 0 4 0 4 0 4 0 
5 0 4 0 4 0 4 0 4 0 4 0 5 0 4 0 
4 0 4 0 4 0 4 0 5 0 4 0 4 0 4 0 
4 0 4 0 5 0 4 0 4 0 4 0 4 0 4 0 
5 0 4 0 4 0 4 0 4 0 4 0 5 0 4 0 
4 0 4 0 4 0 4 0 5 0 4 0 4 0 4 0 
4 0 4 0 5 0 4 0 4 0 4 0 4 0 4 0 
5 0 4 0 4 0 4 0 4 0 4 0 5 0 4 0 
4 0 4 0 4 0 4 0 5 0 4 0 4 0 4 0 
4 0 4 0 5 0 4 0 4 0 4 0 4 8 4 94 
5 0 4 0 4 0 4 0 4 0 4 0 5 0 4 0 
4 0 4 0 4 0 4 0 5 0 4 0 4 0 4 0 
4 0 4 0 4 0 5 0 4 0 4 0 4 0 4 0 
4 0 5 0 4 0 4 0 4 0 4 0 4 0 5 0 
4 0 4 0 4 0 4 0 4 0 5 0 4 0 4 0 
4 0 4 0 4 0 5 0 4 0 4 0 4 0 4 0 
4 0 5 0 4 0 4 0 4 0 4 0 4 0 5 0 
4 0 4 0 4 0 4 0 4 0 5 0 4 0 4 0 
4 0 4 0 4 0 5 0 4 0 4 0 4 0 4 0 
4 0 5 0 4 0 4 0 4 0 4 0 4 0 5 0 
4 0 4 0 4 0 4 0 4 0 5 0 4 0 4 0 
4 0 4 0 4 0 5 0 4 0 4 0 4 0 4 0 
4 0 5 0 4 0 4 0 4 0 4 0 4 0 5 0 
4 0 4 0 4 0 4 0 4 0 5 0 4 0 4 0 
4 0 4 0 4 0 5 0 4 0 4 0 4 0 4 0 
4 0 5 0 4 0 4 0 4 0 4 0 4 0 5 0 
4 0 4 0 4 0 4 0 4 0 5 0 4 42 4 93 
4 -237 4 0 4 0 5 0 4 0 4 0 4 0 4 0 
4 0 5 0 4 0 4 0 4 0 4 0 4 0 5 0 
4 0 4 0 4 0 4 0 4 0 5 0 4 0 4 0 
4 0 4 0 4 0 1128 3589 300 MP stroke
5 0 4 0 4 0 4 0 4 0 4 0 5 0 4 0 
4 0 4 0 4 0 4 0 5 0 4 0 4 0 4 0 
4 0 4 0 5 0 4 0 4 0 4 0 4 0 4 0 
5 0 4 0 4 0 4 0 4 0 4 0 5 0 4 0 
4 0 4 0 4 0 4 0 5 0 4 0 4 0 4 0 
4 0 4 0 5 0 4 0 4 0 4 0 4 0 4 0 
5 0 4 0 4 0 4 0 4 0 4 0 5 0 4 0 
4 0 4 0 4 0 4 0 5 0 4 0 4 0 4 0 
4 0 4 0 5 0 4 0 4 0 4 0 4 0 4 0 
5 0 4 0 4 0 4 0 4 0 4 0 5 0 4 0 
4 0 4 0 4 0 4 0 5 0 4 0 4 0 4 0 
4 0 4 0 5 0 4 0 4 0 4 0 4 0 4 0 
5 0 4 0 4 0 4 0 4 0 4 0 4 0 699 3589 104 MP stroke
gr

c12
0 sg
1832  207 mt 
(Sphere2:  Normal Impulses vs Time) s
 682 3632 mt 
( ) s
4849  344 mt 
( ) s
1 sg
0 772 786 0 0 -772 4019 1134 4 MP
PP
-786 0 0 772 786 0 0 -772 4019 1134 5 MP stroke
4 w
DO
SO
6 w
0 sg
4019 1134 mt 4805 1134 L
4019  362 mt 4805  362 L
4019 1134 mt 4019  362 L
4805 1134 mt 4805  362 L
4019 1134 mt 4805 1134 L
4019 1134 mt 4019  362 L
4019 1134 mt 4805 1134 L
4019  362 mt 4805  362 L
4019 1134 mt 4019  362 L
4805 1134 mt 4805  362 L
4478  496 mt 
(Sph3) s
gs 4019 362 787 773 rc
c8
353 0 4089 453 2 MP stroke
gr

c8
0 sg
4478  643 mt 
(Sph1) s
gs 4019 362 787 773 rc
c9
353 0 4089 600 2 MP stroke
gr

c9
0 sg
4478  791 mt 
(Pln1) s
gs 4019 362 787 773 rc
c10
353 0 4089 748 2 MP stroke
gr

c10
0 sg
4478  938 mt 
(Pln2) s
gs 4019 362 787 773 rc
c11
353 0 4089 895 2 MP stroke
gr

c11
0 sg
4478 1085 mt 
(Pln3) s
gs 4019 362 787 773 rc
c12
353 0 4089 1042 2 MP stroke
gr

c12

end %%Color Dict

eplot
%%EndObject

epage
end

showpage

%%Trailer
%%EOF
